,0
0,3299393.7591120386
1,3299393.7591120386
2,3299393.7591120386
3,3299393.7591120386
4,3299393.7591120386
5,3299393.7591120386
6,3299393.7591120386
7,3299393.7591120386
8,3299393.7591120386
9,3299393.7591120386
10,3299393.7591120386
11,3299393.7591120386
12,3299393.7591120386
13,3299393.7591120386
14,3299393.7591120386
15,3299393.7591120386
16,3299393.7591120386
17,3299393.7591120386
18,3299393.7591120386
19,3299393.7591120386
20,3299393.7591120386
21,3299393.7591120386
22,3299393.7591120386
23,3299393.7591120386
24,3299393.7591120386
25,3299393.7591120386
26,3299393.7591120386
27,3299393.7591120386
28,3299393.7591120386
29,3299393.7591120386
30,3299393.7591120386
31,3429699.0437183864
32,3426271.5670346064
33,3426271.5670346064
34,3426271.5670346064
35,3661300.8297074265
36,3657639.2888991167
37,3657639.2888991167
38,3657639.2888991167
39,3657639.2888991167
40,3657639.2888991167
41,3657639.2888991167
42,3657639.2888991167
43,3657639.2888991167
44,3657639.2888991167
45,3657639.2888991167
46,3657639.2888991167
47,3657639.2888991167
48,3510167.974015493
49,3285211.2627674933
50,3621611.329087493
51,3663706.719919493
52,3660043.785919493
53,3660043.785919493
54,3660043.785919493
55,3660043.785919493
56,3660043.785919493
57,3660043.785919493
58,3660043.785919493
59,3660043.785919493
60,3660043.785919493
61,3660043.785919493
62,3660043.785919493
