,0
0,2602804.341852059
1,2602804.341852059
2,2602804.341852059
3,2602804.341852059
4,2602804.341852059
5,2602804.341852059
6,2602804.341852059
7,2602804.341852059
8,2602804.341852059
9,2602804.341852059
10,2602804.341852059
11,2602804.341852059
12,2602804.341852059
13,2602804.341852059
14,2602804.341852059
15,2602804.341852059
16,2602804.341852059
17,2602804.341852059
18,2602804.341852059
19,2602804.341852059
20,2602804.341852059
21,2602804.341852059
22,2602804.341852059
23,2602804.341852059
24,2602804.341852059
25,2602804.341852059
26,2602804.341852059
27,2602804.341852059
28,2602804.341852059
29,2602804.341852059
30,2602804.341852059
31,2602804.341852059
32,2602804.341852059
33,2602804.341852059
34,2602804.341852059
35,2602804.341852059
36,2602804.341852059
37,2602804.341852059
38,2602804.341852059
39,2602804.341852059
40,2602804.341852059
41,2602804.341852059
42,2602804.341852059
43,2602804.341852059
44,2602804.341852059
45,2602804.341852059
46,2602804.341852059
47,2602804.341852059
48,2602804.341852059
49,2602804.341852059
50,2602804.341852059
51,2602804.341852059
52,2602804.341852059
53,2602804.341852059
54,2602804.341852059
55,2602804.341852059
56,2602804.341852059
57,2602804.341852059
58,2602804.341852059
59,2602804.341852059
60,2602804.341852059
61,2602804.341852059
62,2602804.341852059
