,0
0,0.0
1,0.0
2,0.0
3,-214787.54373076
4,48506.02156400005
5,-62288.78910800023
6,20162.72076000017
7,16236.568348000059
8,-43324.53125
9,20171.25182799995
10,-1864.1072733919136
11,0.0
12,0.0
13,0.0
14,0.0
15,0.0
16,0.0
17,0.0
18,0.0
19,0.0
20,0.0
21,0.0
22,11701.352471652674
23,-55642.03513400024
24,92503.85346000036
25,-1912.7076913840137
26,0.0
27,0.0
28,0.0
29,0.0
30,0.0
31,0.0
32,0.0
33,-5446.091351339826
34,21408.398460000288
35,-1923.197167980019
36,0.0
37,8480.029540596996
38,-1932.923746139044
39,0.0
40,0.0
41,0.0
42,0.0
43,0.0
44,0.0
45,0.0
46,0.0
47,0.0
48,0.0
49,0.0
50,0.0
51,0.0
52,0.0
53,0.0
54,0.0
55,0.0
56,0.0
57,0.0
58,0.0
59,0.0
60,0.0
61,0.0
