,0
0,0.0
1,0.0
2,16888.359869888285
3,-1919.4916405600961
4,-9498.269582759589
5,9488.75969999982
6,-1917.8225390100852
7,61708.69784318749
8,-1978.2251424989663
9,0.0
10,0.0
11,0.0
12,0.0
13,0.0
14,0.0
15,0.0
16,-12758.715709538199
17,-12900.604038085788
18,4082.153307000175
19,1628.9091929998249
20,5703.574271999998
21,-1956.5791025790386
22,43119.29197077011
23,-2006.2259667299222
24,0.0
25,0.0
26,0.0
27,0.0
28,0.0
29,0.0
30,0.0
31,0.0
32,0.0
33,0.0
34,0.0
35,0.0
36,0.0
37,0.0
38,0.0
39,0.0
40,0.0
41,0.0
42,0.0
43,0.0
44,28524.764381575165
45,-2027.3635497500654
46,0.0
47,0.0
48,0.0
49,0.0
50,0.0
51,0.0
52,0.0
53,0.0
54,13605.103354850318
55,-2942.409960804973
56,19096.160178000107
57,-2048.779652321944
58,20066.090822354425
59,-29682.359236718854
60,39438.457019999856
61,-2077.649999999907
