,0
0,0.0
1,0.0
2,0.0
3,-5122.525050695054
4,82529.06669566408
5,-3101.57352351211
6,-9639.012886089273
7,70852.3341749995
8,-3163.1001954651438
9,-136791.42087999964
10,-75709.02367000002
11,27271.826230000705
12,10071.972849999554
13,39465.058400000446
14,-3024.970917929895
15,0.0
16,0.0
17,0.0
18,0.0
19,0.0
20,0.0
21,0.0
22,0.0
23,3858.679807957262
24,66516.7492157165
25,-3089.8010043911636
26,0.0
27,0.0
28,0.0
29,0.0
30,0.0
31,17564.52941775974
32,-3110.7237568171695
33,-52492.46621361002
34,15456.113205000758
35,-104025.8494950002
36,-338171.13296500035
37,-40739.8388100001
38,-112247.7442549998
39,40527.76865000045
40,-1808.8525200006552
41,-39182.63751485944
42,57552.73419094086
43,-2527.1226685601287
44,0.0
45,0.0
46,0.0
47,0.0
48,-53163.83021127945
49,79814.85834999941
50,-2556.1431445698254
51,0.0
52,0.0
53,0.0
54,0.0
55,0.0
56,0.0
57,0.0
58,-51640.8207488507
59,17535.510458000004
60,-40648.823642999865
61,4774.791396999732
