,0
0,2778987.526116639
1,2778987.526116639
2,2868521.9929705355
3,2865652.9063261757
4,2865652.9063261757
5,2865652.9063261757
6,2865652.9063261757
7,2865652.9063261757
8,2865652.9063261757
9,2865652.9063261757
10,2865652.9063261757
11,2865652.9063261757
12,2881756.081616594
13,2874187.1934311213
14,2880624.0496964096
15,2859379.0511773406
16,2915706.7675427822
17,2912791.197494066
18,2912791.197494066
19,2912791.197494066
20,2912791.197494066
21,2912791.197494066
22,2912791.197494066
23,2912791.197494066
24,2912791.197494066
25,2912791.197494066
26,2912791.197494066
27,2912791.197494066
28,2912791.197494066
29,2912791.197494066
30,2912791.197494066
31,2912791.197494066
32,2912791.197494066
33,2912791.197494066
34,2912791.197494066
35,2912791.197494066
36,2912791.197494066
37,2912791.197494066
38,2912791.197494066
39,2912791.197494066
40,2912791.197494066
41,2912791.197494066
42,2912791.197494066
43,2912791.197494066
44,2912791.197494066
45,2912791.197494066
46,2912791.197494066
47,2912791.197494066
48,2912791.197494066
49,2912791.197494066
50,2912791.197494066
51,2912791.197494066
52,2953790.957101574
53,2952958.538462574
54,3036625.294180574
55,3033592.72458873
56,3033592.72458873
57,3033592.72458873
58,3033592.72458873
59,3033592.72458873
60,3033592.72458873
61,3033592.72458873
62,3033592.72458873
