,0
0,3660043.785919493
1,3660043.785919493
2,3660043.785919493
3,3660043.785919493
4,3660043.785919493
5,3660043.785919493
6,3660043.785919493
7,3660043.785919493
8,3660043.785919493
9,3660043.785919493
10,3660043.785919493
11,3660043.785919493
12,3660043.785919493
13,3660043.785919493
14,3660043.785919493
15,3660043.785919493
16,3660043.785919493
17,3660043.785919493
18,3660043.785919493
19,3660043.785919493
20,3660043.785919493
21,3660043.785919493
22,3660043.785919493
23,3660043.785919493
24,3660043.785919493
25,3475612.546045513
26,3472135.907959493
27,3686381.6240984374
28,3493046.2257986325
29,3518246.176798633
30,4020252.829341168
31,4016353.5583154955
32,4016353.5583154955
33,4016353.5583154955
34,4016353.5583154955
35,4299634.934664596
36,4296268.511719052
37,4296268.511719052
38,4296268.511719052
39,4296268.511719052
40,4296268.511719052
41,4296268.511719052
42,4296268.511719052
43,4296268.511719052
44,4296268.511719052
45,4318504.955849248
46,4258075.8644727785
47,4436738.454495869
48,4557198.156094651
49,4370542.96486677
50,4385711.408908055
51,3646548.2732526194
52,3550745.3889746284
53,3641598.0062759565
54,3637956.6444657943
55,4038656.866795412
56,4034619.4171343767
57,3798555.553924054
58,3776694.553924054
59,3947071.553924054
60,3943129.841988377
61,3943129.841988377
62,3943129.841988377
