,0
0,0.0
1,0.0
2,0.0
3,0.0
4,0.0
5,0.0
6,0.0
7,0.0
8,0.0
9,0.0
10,0.0
11,0.0
12,0.0
13,0.0
14,0.0
15,0.0
16,0.0
17,0.0
18,0.0
19,0.0
20,0.0
21,0.0
22,0.0
23,0.0
24,0.0
25,0.0
26,0.0
27,0.0
28,-40863.442188047804
29,44751.35532998992
30,23103.0
31,-1880.6385690600146
32,0.0
33,0.0
34,0.0
35,0.0
36,0.0
37,0.0
38,0.0
39,0.0
40,0.0
41,0.0
42,0.0
43,35746.204727615695
44,95824.39206444286
45,-2012.9492404693738
46,0.0
47,-3286.378224999644
48,-48874.709871941246
49,10275.794350101147
50,-15179.978371374775
51,-60510.239420131315
52,-355244.08015705086
53,234961.44179421943
54,-6076.452970655169
55,-20527.61179440096
56,234839.71730448538
57,-1979.329641492106
58,0.0
59,0.0
60,0.0
61,0.0
