,0
0,1921505.2728871559
1,1921505.2728871559
2,1921505.2728871559
3,1921505.2728871559
4,1921505.2728871559
5,1921505.2728871559
6,1921505.2728871559
7,2029732.768219866
8,2027702.0045737082
9,2027702.0045737082
10,2027702.0045737082
11,2027702.0045737082
12,2027702.0045737082
13,2027702.0045737082
14,2027702.0045737082
15,2027702.0045737082
16,2027702.0045737082
17,2027702.0045737082
18,2027702.0045737082
19,2027702.0045737082
20,2027702.0045737082
21,2027702.0045737082
22,2027702.0045737082
23,2069406.6509968622
24,1909104.7918338825
25,1877302.5721548824
26,1918381.3376958824
27,2022881.7237598824
28,2020860.5991689195
29,2051598.6819549925
30,2049545.1290772785
31,2049545.1290772785
32,2049545.1290772785
33,2049545.1290772785
34,2049545.1290772785
35,2049545.1290772785
36,1959727.5766858868
37,2018190.0551358378
38,2035838.7246558378
39,2007817.4475658378
40,1961618.2633658377
41,1925049.1325558377
42,1981865.8709358377
43,1979885.7596587478
44,1979885.7596587478
45,1979885.7596587478
46,1979885.7596587478
47,1979885.7596587478
48,1979885.7596587478
49,1979885.7596587478
50,1979885.7596587478
51,1948908.847889542
52,1999765.8764965811
53,1965662.701558581
54,1861904.3764965811
55,1666582.450697581
56,1609072.098210581
57,1857797.539888581
58,1855941.274431885
59,1855941.274431885
60,1855941.274431885
61,1855941.274431885
62,1855941.274431885
