,0
0,1000000.0
1,1000612.8908052377
2,999815.0731602676
3,1001264.7937632801
4,1006613.9547409866
5,1017613.6711503379
6,993326.8785989223
7,999216.430177819
8,1004941.8590652177
9,1005842.156370106
10,1006255.468943526
11,1014964.5321245323
12,988251.2324645981
13,990412.7978908813
14,998400.5053519086
15,997319.7226387671
16,1008652.9690321719
17,1008520.8601985016
18,1004547.7535337746
19,1006436.6143635603
20,1008289.3258433742
21,1029566.4400205615
22,1025238.8814972616
23,1007771.1088952192
24,1003579.8161637874
25,1007227.4133393492
26,1010028.0713469671
27,1017014.1637559807
28,1017082.7487697647
29,1018055.3153820394
30,1022843.6538354947
31,1021131.5759192645
32,1019520.8495370323
33,1014938.4193363636
34,1012418.8358423249
35,1017615.469605675
36,1019833.6666777178
37,1026367.5227571818
38,1022853.2084924212
39,1024175.9197103638
40,1037284.6645820183
41,1039357.9703180456
42,1033413.4360781037
43,1036026.4867067423
44,1052745.3412559896
45,1063445.3290157106
46,1082561.2223153329
47,1073681.4102941242
48,1084625.2918133598
49,1104545.6997266063
50,1111458.7505208477
51,1122686.7170549165
52,1083058.2556300196
53,1093323.146683623
54,1108138.392072493
55,1091636.6828005551
56,1099801.7069672411
57,1082214.335906988
58,1095924.2883123648
59,1087209.2505968784
60,1088842.2540984133
61,1116726.1721851402
62,1114134.6828175304
