,0
0,2602804.341852059
1,2602804.341852059
2,2602804.341852059
3,2602804.341852059
4,2602804.341852059
5,2602804.341852059
6,2602804.341852059
7,2628761.253923336
8,2626401.9198701396
9,2626401.9198701396
10,2626401.9198701396
11,2626401.9198701396
12,2626401.9198701396
13,2626401.9198701396
14,2626401.9198701396
15,2626401.9198701396
16,2626401.9198701396
17,2624911.695631662
18,2625635.71378461
19,2628903.3324388936
20,2626274.996842293
21,2626274.996842293
22,2626274.996842293
23,2717752.3039242513
24,2715032.6341742515
25,2715032.6341742515
26,2715032.6341742515
27,2715032.6341742515
28,2715032.6341742515
29,2715032.6341742515
30,2715032.6341742515
31,2715032.6341742515
32,2715032.6341742515
33,2715032.6341742515
34,2715032.6341742515
35,2715032.6341742515
36,2715032.6341742515
37,2715032.6341742515
38,2715032.6341742515
39,2715032.6341742515
40,2715032.6341742515
41,2715032.6341742515
42,2715032.6341742515
43,2715032.6341742515
44,2715032.6341742515
45,2781770.818172961
46,2778987.526116639
47,2778987.526116639
48,2778987.526116639
49,2778987.526116639
50,2778987.526116639
51,2778987.526116639
52,2778987.526116639
53,2778987.526116639
54,2778987.526116639
55,2778987.526116639
56,2778987.526116639
57,2778987.526116639
58,2778987.526116639
59,2778987.526116639
60,2778987.526116639
61,2778987.526116639
62,2778987.526116639
