,0
0,0.0
1,0.0
2,40830.46663605049
3,-408657.4516303912
4,-132178.32517099986
5,133878.3006839999
6,-349283.25171
7,-514156.761194
8,311497.7369299801
9,-51753.076050000265
10,251273.11521000043
11,-3223.5800391598605
12,0.0
13,0.0
14,0.0
15,0.0
16,0.0
17,0.0
18,0.0
19,0.0
20,0.0
21,0.0
22,0.0
23,0.0
24,0.0
25,91836.36948900064
26,-156657.40401600022
27,-26571.93361905543
28,157917.11539771222
29,-2340.21012107376
30,0.0
31,0.0
32,0.0
33,0.0
34,0.0
35,0.0
36,0.0
37,0.0
38,0.0
39,0.0
40,-168791.46153655509
41,250133.08893299988
42,-131101.92786599975
43,-3604.9483079998754
44,-324689.05368900066
45,10898.824482000433
46,13158.72920700023
47,-147935.87382600037
48,107686.73155500041
49,142846.71675299946
50,-3029.358287240844
51,0.0
52,0.0
53,0.0
54,0.0
55,0.0
56,0.0
57,0.0
58,0.0
59,-303555.7549573793
60,-104561.30079980567
61,31543.71070000017
